C:\Temp\Valuuttamuunnin\src\main\java\controller\ValuuttakoneenOhjain.java
C:\Temp\Valuuttamuunnin\src\main\java\TekstiMain.java
C:\Temp\Valuuttamuunnin\src\main\java\model\Valuutta.java
C:\Temp\Valuuttamuunnin\src\main\java\controller\IValuuttakoneenOhjain.java
C:\Temp\Valuuttamuunnin\src\main\java\model\IValuuttakone.java
C:\Temp\Valuuttamuunnin\src\main\java\model\IValuuttaDAO.java
C:\Temp\Valuuttamuunnin\src\main\java\model\ValuuttaAccessObject.java
C:\Temp\Valuuttamuunnin\src\main\java\view\ValuuttakoneenGUI.java
C:\Temp\Valuuttamuunnin\src\main\java\view\IValuuttakoneenGUI.java
C:\Temp\Valuuttamuunnin\src\main\java\model\Valuuttakone.java
